Extract elements of a workflow — workflow-extractors • workflows
…
# The mold is returned from `hardhat::mold()`, and contains the
# predictors, outcomes, and information about the preprocessing
# for use on new data at `predict()` time.
pull_workflow_mold(fit_recipe_workflow)
#> $predictors
#> # A tibble: 32 x 2
#>      cyl  disp
#>    <dbl> <dbl>
#>  1     6  5.08
#>  2     6  5.08
#>  3     4  4.68
#>  4     6  5.55
#>  5     8  5.89
#>  6     6  5.42
#>  7     8  5.89
#>  8     4  4.99
#>  9     4  4.95
#> 10     6  5.12
#> # … with 22 more rows
#> 
#> $outcomes
#> # A tibble: 32 x 1
#>      mpg
#>    <dbl>
#>  1  21  
#>  2  21  
#>  3  22.8
#>  4  21.4
#>  5  18.7
#>  6  18.1
#>  7  14.3
#>  8  24.4
#>  9  22.8
#> 10  19.2
#> # … with 22 more rows
…
