Add variables to a workflow — add_variables • workflows
…
# The `outcomes` are removed before the `predictors` expression
# is evaluated. This allows you to easily specify the predictors
# as "everything except the outcomes".
workflow2 <- add_variables(workflow, mpg, everything())
workflow2 <- fit(workflow2, mtcars)
extract_mold(workflow2)$predictors

#> # A tibble: 32 × 10
#>      cyl  disp    hp  drat    wt  qsec    vs    am  gear  carb
#>    <dbl> <dbl> <dbl> <dbl> <dbl> <dbl> <dbl> <dbl> <dbl> <dbl>
#>  1     6  160    110  3.9   2.62  16.5     0     1     4     4
#>  2     6  160    110  3.9   2.88  17.0     0     1     4     4
#>  3     4  108     93  3.85  2.32  18.6     1     1     4     1
#>  4     6  258    110  3.08  3.22  19.4     1     0     3     1
#>  5     8  360    175  3.15  3.44  17.0     0     0     3     2
#>  6     6  225    105  2.76  3.46  20.2     1     0     3     1
#>  7     8  360    245  3.21  3.57  15.8     0     0     3     4
#>  8     4  147.    62  3.69  3.19  20       1     0     4     2
#>  9     4  141.    95  3.92  3.15  22.9     1     0     4     2
#> 10     6  168.   123  3.92  3.44  18.3     1     0     4     4
#> # … with 22 more rows
…
