Add case weights to a workflow — add_case_weights • workflows
…
spec <- linear_reg() %>%
  set_engine("lm")

wf <- workflow() %>%
  add_case_weights(gear) %>%
  add_formula(mpg ~ .) %>%
  add_model(spec)

wf <- fit(wf, mtcars2)

# Notice that the case weights (gear) aren't included in the predictors
extract_mold(wf)$predictors
#> # A tibble: 32 × 10
#>    `(Intercept)`   cyl  disp    hp  drat    wt  qsec    vs    am  carb
#>            <dbl> <dbl> <dbl> <dbl> <dbl> <dbl> <dbl> <dbl> <dbl> <dbl>
#>  1             1     6  160    110  3.9   2.62  16.5     0     1     4
#>  2             1     6  160    110  3.9   2.88  17.0     0     1     4
#>  3             1     4  108     93  3.85  2.32  18.6     1     1     1
#>  4             1     6  258    110  3.08  3.22  19.4     1     0     1
#>  5             1     8  360    175  3.15  3.44  17.0     0     0     2
#>  6             1     6  225    105  2.76  3.46  20.2     1     0     1
#>  7             1     8  360    245  3.21  3.57  15.8     0     0     4
#>  8             1     4  147.    62  3.69  3.19  20       1     0     2
#>  9             1     4  141.    95  3.92  3.15  22.9     1     0     2
#> 10             1     6  168.   123  3.92  3.44  18.3     1     0     4
#> # … with 22 more rows
…
