Internal workflow functions — workflows-internals • workflows
…
# Which allows you to predict from it
try(predict(wf_fit_model, mtcars))
#> Error in predict(wf_fit_model, mtcars) : 
#>   Workflow has not yet been trained. Do you need to call `fit()`?

predict(wf_fit, mtcars)
#> # A tibble: 32 × 1
#>    .pred
#>    <dbl>
#>  1  22.0
#>  2  22.0
#>  3  25.8
#>  4  17.8
#>  5  14.5
#>  6  19.0
#>  7  14.5
#>  8  23.1
#>  9  23.4
#> 10  21.6
#> # … with 22 more rows
…
